﻿{
	"AlwaysIncludeMethodPatterns": [
		"System.Threading.Monitor",
		"System.Threading.Thread::.ctor(",
		"System.Threading.Thread::Start(",
		"System.Threading.Thread::Join("
	],

	"ArrayInjectors": true,
	"FieldInjectors": true,
	"MethodInjectors": true,
	"ClassCreateInjector": true,
	"ObjectCreateInjector": true,

	"VerifyInstrumentation": true
}